,0,0,0,0
,0.012078,0.12078,0,0
,0.048311,0.24156,0,0
,0.1087,0.36233,0,0
,0.16909,0.24156,0,0
,0.20532,0.12078,0,0
,0.2174,0,0,0
,0.2174,0,0,0
,0.2174,0,0,0
,0.2174,0,0,0
,0.21507,-0.025919,0,0
,0.207,-0.054717,0,0
,0.19318,-0.083515,0,0
,0.17826,-0.060477,0,0
,0.16905,-0.031678,0,0
,0.16559,-0.0028798,0,0
,0.16699,0.016787,0.15547,0.025961
,0.17232,0.036537,0.29807,0.051364
,0.1816,0.056287,0.40143,0.072901
,0.19483,0.074061,0.47045,0.091657
,0.20766,0.054312,0.50108,0.10406
,0.21655,0.034562,0.49707,0.10764
,0.22149,0.014812,0.47522,0.10526
,0.2226,1.3878e-17,0.44887,0.099919
,0.2226,1.3878e-17,0.43016,0.095753
,0.2226,1.3878e-17,0.42317,0.094197
,0.2226,1.3878e-17,0.42827,0.095333
,0.22253,-0.0017488,0.44507,0.099041
,0.22174,-0.0061208,0.47074,0.10438
,0.22008,-0.010493,0.50019,0.11008
,0.21755,-0.014865,0.5226,0.11369
,0.21445,-0.01399,0.51895,0.11129
,0.21209,-0.0096183,0.46369,0.098344
,0.2106,-0.0052464,0.32464,0.06837
,0.20999,-0.00087439,0.077738,0.016324
,0.20993,-0.00056451,-0.21487,-0.045107
,0.20974,-0.0013172,-0.40289,-0.084503
,0.2094,-0.0020699,-0.49014,-0.10264
,0.20892,-0.0028226,-0.50842,-0.10622
,0.20841,-0.0021452,-0.49086,-0.1023
,0.20806,-0.0013925,-0.46127,-0.095971
,0.20785,-0.00063978,-0.43262,-0.089921
,0.2078,-4.3368e-19,-0.41087,-0.085379
,0.2078,-4.3368e-19,-0.39817,-0.08274
,0.2078,-4.3368e-19,-0.39519,-0.08212
,0.2078,-4.3368e-19,-0.40204,-0.083545
,0.20781,0.00022581,-0.41843,-0.086953
,0.20793,0.00097849,-0.44334,-0.092183
,0.2082,0.0017312,-0.4734,-0.098562
,0.20862,0.0024839,-0.50034,-0.10438
,0.20915,0.0024839,-0.50726,-0.1061
,0.20958,0.0017312,-0.46592,-0.097646
,0.20985,0.00097849,-0.34199,-0.071766
,0.20997,0.00022581,-0.10932,-0.022954
,0.20994,-0.00048925,-0.18979,-0.039845
,0.20977,-0.0012419,-0.38904,-0.081609
,0.20945,-0.0019946,-0.48511,-0.1016
,0.20897,-0.0027473,-0.5087,-0.1063
,0.20846,-0.0022204,-0.49346,-0.10286
,0.20809,-0.0014677,-0.46433,-0.096622
,0.20787,-0.00071505,-0.43523,-0.090471
,0.2078,-4.3368e-19,-0.41265,-0.085749
,0.2078,-4.3368e-19,-0.39901,-0.082914
,0.2078,-4.3368e-19,-0.39504,-0.08209
,0.2078,-4.3368e-19,-0.40092,-0.083311
,0.2078,0.00015054,-0.41638,-0.086526
,0.20791,0.00090322,-0.44053,-0.091591
,0.20816,0.0016559,-0.47035,-0.09791
,0.20857,0.0024086,-0.49818,-0.10391
,0.2091,0.0025591,-0.5082,-0.10627
,0.20954,0.0018064,-0.47321,-0.099156
,0.20983,0.0010538,-0.35901,-0.075329
,0.20996,0.00030107,-0.13773,-0.028918
,0.20995,-0.00041398,0.16357,0.034343
,0.20979,-0.0011667,0.37415,0.078493
,0.20948,-0.0019193,0.47934,0.10041
,0.20903,-0.002672,0.50861,0.10631
,0.2085,-0.0022957,0.49592,0.1034
,0.20812,-0.001543,0.4674,0.097274
,0.20788,-0.00079032,0.43792,0.091035
,0.2078,-3.7634e-05,0.41453,0.086138
,0.2078,-4.3368e-19,0.39995,0.083109
,0.2078,-4.3368e-19,0.395,0.08208
,0.2078,-4.3368e-19,0.39989,0.083098
,0.2078,7.5268e-05,0.41442,0.086117
,0.20789,0.00082795,0.43779,0.091012
,0.20813,0.0015806,0.46728,0.097256
,0.20852,0.0023333,0.49586,0.1034
,0.20905,0.0026344,0.50869,0.10634
,0.2095,0.0018817,0.4797,0.1005
,0.2098,0.001129,0.37493,0.078661
,0.20995,0.00037634,0.16483,0.034606
,0.20996,-0.00033871,0.13623,0.028603
,0.20982,-0.0010914,0.35818,0.075151
,0.20952,-0.0018441,0.47282,0.099066
,0.20908,-0.0025968,0.50809,0.10623
,0.20855,-0.002371,0.49824,0.10391
,0.20815,-0.0016183,0.47047,0.097927
,0.2079,-0.00086559,0.44066,0.091614
,0.2078,-0.0001129,0.41649,0.086547
,0.2078,-4.3368e-19,0.40098,0.083323
,0.2078,-4.3368e-19,0.39505,0.082091
,0.2078,-4.3368e-19,0.39896,0.082904
,0.2078,-4.3368e-19,0.41255,0.085729
,0.20788,0.00075268,0.43511,0.090448
,0.2081,0.0015054,0.46421,0.096602
,0.20848,0.0022581,0.49338,0.10286
,0.209,0.0027097,0.50877,0.10633
,0.20946,0.001957,0.48542,0.10168
,0.20978,0.0012043,0.38977,0.081767
,0.20995,0.00045161,0.19104,0.040107
,0.20996,-0.00026344,0.10778,0.02263
,0.20984,-0.0010161,0.34111,0.071577
,0.20956,-0.0017688,0.4655,0.097548
,0.20913,-0.0025215,0.50714,0.10606
,0.2086,-0.0024462,0.50038,0.10438
,0.20818,-0.0016935,0.47352,0.098579
,0.20792,-0.00094086,0.44347,0.092206
,0.2078,-0.00018817,0.41854,0.086975
,0.2078,-4.3368e-19,0.40211,0.083558
,0.2078,-4.3368e-19,0.3952,0.082122
,0.2078,-4.3368e-19,0.39813,0.082731
,0.2078,-4.3368e-19,0.41077,0.085359
,0.20786,0.00067742,0.43249,0.089898
,0.20807,0.0014301,0.46114,0.095951
,0.20843,0.0021828,0.49078,0.10229
,0.20894,0.0027849,0.50847,0.10624
,0.20943,0.0020322,0.49043,0.10271
,0.20976,0.0012796,0.40357,0.084652
,0.20994,0.00052688,0.21608,0.045364
,0.20997,-0.00018817,0.078253,0.016431
,0.20986,-0.00094086,0.32293,0.067769
,0.20959,-0.0016935,0.45734,0.095855
,0.20918,-0.0024462,0.5057,0.10578
,0.20864,-0.0025215,0.50234,0.10481
,0.20822,-0.0017688,0.47655,0.099225
,0.20794,-0.0010161,0.44633,0.09281
,0.20781,-0.00026344,0.42068,0.087422
,0.2078,-4.3368e-19,0.40333,0.083813
,0.2078,-4.3368e-19,0.39545,0.082174
,0.2078,-4.3368e-19,0.39739,0.082578
,0.2078,-4.3368e-19,0.40909,0.085008
,0.20785,0.00060215,0.42995,0.089365
,0.20804,0.0013548,0.45809,0.095303
,0.20839,0.0021075,0.48807,0.10171
,0.20889,0.0028602,0.50782,0.10608
,0.20938,0.0021075,0.49475,0.10359
,0.20973,0.0013548,0.41635,0.08732
,0.20993,0.00060215,0.23994,0.050369
,0.20997,-0.0001129,0.04769,0.010014
,0.20987,-0.00086559,0.30362,0.063721
,0.20963,-0.0016183,0.44832,0.093979
,0.20923,-0.002371,0.50375,0.1054
,0.2087,-0.0025968,0.50408,0.1052
,0.20825,-0.0018441,0.47954,0.099865
,0.20796,-0.0010914,0.44925,0.093425
,0.20782,-0.00033871,0.42291,0.087887
,0.2078,-4.3368e-19,0.40465,0.084087
,0.2078,-4.3368e-19,0.3958,0.082247
,0.2078,-4.3368e-19,0.39676,0.082446
,0.2078,-4.3368e-19,0.40749,0.084677
,0.20784,0.00052688,0.42749,0.088847
,0.20802,0.0012796,0.45507,0.094662
,0.20835,0.0020322,0.48526,0.1011
,0.20883,0.0027849,0.50685,0.10584
,0.20934,0.0021828,0.49841,0.10434
,0.2097,0.0014301,0.42813,0.089779
,0.20991,0.00067742,0.26265,0.055133
,0.20998,0.001307,0,0
,0.21286,0.027447,0,0
,0.22096,0.053587,0,0
,0.23429,0.079727,0,0
,0.25285,0.10587,0,0
,0.27408,0.09541,0,0
,0.29054,0.069271,0,0
,0.30178,0.043131,0,0
,0.3078,0.016991,0,0
,0.3089,-2.7756e-17,0,0
,0.3089,-2.7756e-17,0,0
,0.3089,-2.7756e-17,0,0
,0.3089,-2.7756e-17,0,0
,0.3089,-2.7756e-17,0,0
,0.30229,-0.07346,0,0
,0.27943,-0.15508,0,0
,0.24026,-0.2367,0,0
,0.18475,-0.31833,0,0
,0.11786,-0.31017,0,0
,0.063992,-0.22854,0,0
,0.026446,-0.14692,0,0
,0.0052238,-0.065298,0,0
